…
\*\*\* Q4: Of the stations that serve the A train, how many are ADA compliant?

\*\*\* A4: `{r} filter(NYC_Retain,route1 == "A") %>% summary(ada)` We can observe 107 stations which serve the A train that are ADA compliant.

Problem 2

``` r
Trash_Wheel <- read_excel("~/data/HealthyHarborWaterWheelTotals2018-7-28.xlsx",range=cell_cols("A:N")) %>%
janitor::clean_names()%>%
filter(!is.na(dumpster))%>%
mutate(sports_balls=as.integer(round(sports_balls)))
Trash_Wheel
```

    ## # A tibble: 285 x 14
    ##    dumpster month  year date                weight_tons volume_cubic_ya~
    ##       <dbl> <chr> <dbl> <dttm>                    <dbl>            <dbl>
    ##  1        1 May    2014 2014-05-16 00:00:00        4.31               18
    ##  2        2 May    2014 2014-05-16 00:00:00        2.74               13
    ##  3        3 May    2014 2014-05-16 00:00:00        3.45               15
    ##  4        4 May    2014 2014-05-17 00:00:00        3.1                15
    ##  5        5 May    2014 2014-05-17 00:00:00        4.06               18
    ##  6        6 May    2014 2014-05-20 00:00:00        2.71               13
    ##  7        7 May    2014 2014-05-21 00:00:00        1.91                8
    ##  8        8 May    2014 2014-05-28 00:00:00        3.7                16
    ##  9        9 June   2014 2014-06-05 00:00:00        2.52               14
    ## 10       10 June   2014 2014-06-11 00:00:00        3.76               18
    ## # ... with 275 more rows, and 8 more variables: plastic_bottles <dbl>,
    ## #   polystyrene <dbl>, cigarette_butts <dbl>, glass_bottles <dbl>,
    ## #   grocery_bags <dbl>, chip_bags <dbl>, sports_balls <int>,
    ## #   homes_powered <dbl>
…
Problem 3

``` r
data("brfss_smart2010")
brfss_data <- brfss_smart2010 %>%
janitor::clean_names() %>%
filter(topic == "Overall Health") %>%
select(-class, -topic, -question, -sample_size, -(confidence_limit_low:geo_location)) %>%
spread(key=response,value=data_value) %>%
janitor::clean_names() %>%
mutate(Proportion = excellent+very_good)
brfss_data
```

    ## # A tibble: 2,125 x 9
    ##     year locationabbr locationdesc excellent  fair  good  poor very_good
    ##    <int> <chr>        <chr>            <dbl> <dbl> <dbl> <dbl>     <dbl>
    ##  1  2002 AK           AK - Anchor~      27.9   8.6  23.8   5.9      33.7
    ##  2  2002 AL           AL - Jeffer~      18.5  12.1  32.7   5.9      30.9
    ##  3  2002 AR           AR - Pulask~      24.1  12.5  29.9   4.2      29.3
    ##  4  2002 AZ           AZ - Marico~      21.6  10.3  26.9   4.6      36.6
    ##  5  2002 AZ           AZ - Pima C~      26.6   7.5  31.9   3.9      30.1
    ##  6  2002 CA           CA - Los An~      22.7  14.3  28.7   4.5      29.8
    ##  7  2002 CO           CO - Adams ~      21.2  14.4  29     4.2      31.2
    ##  8  2002 CO           CO - Arapah~      25.5   8    29.3   2.1      35.2
    ##  9  2002 CO           CO - Denver~      22.2  11.1  36.6   3        27.1
    ## 10  2002 CO           CO - Jeffer~      23.4  11.4  26.3   2.4      36.6
    ## # ... with 2,115 more rows, and 1 more variable: Proportion <dbl>
…
